%YAML 1.1
%TAG !u! tag:unity3d.com,2011:
--- !u!1001 &6707634269630743894
PrefabInstance:
  m_ObjectHideFlags: 0
  serializedVersion: 2
  m_Modification:
    m_TransformParent: {fileID: 0}
    m_Modifications:
    - target: {fileID: 6290994429335665007, guid: fae65f5f8152a2c4794eb7a2e85caa27, type: 3}
      propertyPath: m_RootOrder
      value: 0
      objectReference: {fileID: 0}
    - target: {fileID: 6290994429335665007, guid: fae65f5f8152a2c4794eb7a2e85caa27, type: 3}
      propertyPath: m_LocalPosition.x
      value: -13.497
      objectReference: {fileID: 0}
    - target: {fileID: 6290994429335665007, guid: fae65f5f8152a2c4794eb7a2e85caa27, type: 3}
      propertyPath: m_LocalPosition.y
      value: 2.884
      objectReference: {fileID: 0}
    - target: {fileID: 6290994429335665007, guid: fae65f5f8152a2c4794eb7a2e85caa27, type: 3}
      propertyPath: m_LocalPosition.z
      value: 59.644
      objectReference: {fileID: 0}
    - target: {fileID: 6290994429335665007, guid: fae65f5f8152a2c4794eb7a2e85caa27, type: 3}
      propertyPath: m_LocalRotation.w
      value: 0.92387956
      objectReference: {fileID: 0}
    - target: {fileID: 6290994429335665007, guid: fae65f5f8152a2c4794eb7a2e85caa27, type: 3}
      propertyPath: m_LocalRotation.x
      value: 0
      objectReference: {fileID: 0}
    - target: {fileID: 6290994429335665007, guid: fae65f5f8152a2c4794eb7a2e85caa27, type: 3}
      propertyPath: m_LocalRotation.y
      value: 0.38268343
      objectReference: {fileID: 0}
    - target: {fileID: 6290994429335665007, guid: fae65f5f8152a2c4794eb7a2e85caa27, type: 3}
      propertyPath: m_LocalRotation.z
      value: 0
      objectReference: {fileID: 0}
    - target: {fileID: 6290994429335665007, guid: fae65f5f8152a2c4794eb7a2e85caa27, type: 3}
      propertyPath: m_LocalEulerAnglesHint.x
      value: 0
      objectReference: {fileID: 0}
    - target: {fileID: 6290994429335665007, guid: fae65f5f8152a2c4794eb7a2e85caa27, type: 3}
      propertyPath: m_LocalEulerAnglesHint.y
      value: 45
      objectReference: {fileID: 0}
    - target: {fileID: 6290994429335665007, guid: fae65f5f8152a2c4794eb7a2e85caa27, type: 3}
      propertyPath: m_LocalEulerAnglesHint.z
      value: 0
      objectReference: {fileID: 0}
    - target: {fileID: 6630928912328369109, guid: fae65f5f8152a2c4794eb7a2e85caa27, type: 3}
      propertyPath: m_Name
      value: armchair_BLEND (3)
      objectReference: {fileID: 0}
    m_RemovedComponents: []
  m_SourcePrefab: {fileID: 100100000, guid: fae65f5f8152a2c4794eb7a2e85caa27, type: 3}
